<?xml version="1.0" encoding="utf-8"?>
<!-- Generator: Adobe Illustrator 22.1.0, SVG Export Plug-In . SVG Version: 6.00 Build 0)  -->
<svg version="1.1" id="Warstwa_1" xmlns="http://www.w3.org/2000/svg" xmlns:xlink="http://www.w3.org/1999/xlink" x="0px" y="0px"
	 viewBox="0 0 520 200" style="enable-background:new 0 0 520 200;" xml:space="preserve">
<style type="text/css">
	.st0{clip-path:url(#SVGID_2_);}
	.st1{clip-path:url(#SVGID_4_);enable-background:new    ;}
	.st2{clip-path:url(#SVGID_6_);}
	.st3{clip-path:url(#SVGID_8_);}
	.st4{clip-path:url(#SVGID_10_);fill:#066987;}
	.st5{clip-path:url(#SVGID_12_);}
	.st6{clip-path:url(#SVGID_14_);enable-background:new    ;}
	.st7{clip-path:url(#SVGID_16_);}
	.st8{clip-path:url(#SVGID_18_);}
	.st9{clip-path:url(#SVGID_20_);fill:#066987;}
	.st10{clip-path:url(#SVGID_22_);}
	.st11{clip-path:url(#SVGID_24_);enable-background:new    ;}
	.st12{clip-path:url(#SVGID_26_);}
	.st13{clip-path:url(#SVGID_28_);}
	.st14{clip-path:url(#SVGID_30_);fill:#F59421;}
	.st15{clip-path:url(#SVGID_32_);}
	.st16{clip-path:url(#SVGID_34_);enable-background:new    ;}
	.st17{clip-path:url(#SVGID_36_);}
	.st18{clip-path:url(#SVGID_38_);}
	.st19{clip-path:url(#SVGID_40_);fill:#F59421;}
	.st20{clip-path:url(#SVGID_42_);}
	.st21{clip-path:url(#SVGID_44_);enable-background:new    ;}
	.st22{clip-path:url(#SVGID_46_);}
	.st23{clip-path:url(#SVGID_48_);}
	.st24{clip-path:url(#SVGID_50_);fill:#F59421;}
	.st25{clip-path:url(#SVGID_52_);}
	.st26{clip-path:url(#SVGID_54_);enable-background:new    ;}
	.st27{clip-path:url(#SVGID_56_);}
	.st28{clip-path:url(#SVGID_58_);}
	.st29{clip-path:url(#SVGID_60_);fill:#066987;}
	.st30{clip-path:url(#SVGID_62_);}
	.st31{clip-path:url(#SVGID_64_);enable-background:new    ;}
	.st32{clip-path:url(#SVGID_66_);}
	.st33{clip-path:url(#SVGID_68_);}
	.st34{clip-path:url(#SVGID_70_);fill:#00A9AC;}
	.st35{clip-path:url(#SVGID_72_);}
	.st36{clip-path:url(#SVGID_74_);enable-background:new    ;}
	.st37{clip-path:url(#SVGID_76_);}
	.st38{clip-path:url(#SVGID_78_);}
	.st39{clip-path:url(#SVGID_80_);fill:#00A9AC;}
	.st40{clip-path:url(#SVGID_82_);}
	.st41{clip-path:url(#SVGID_84_);enable-background:new    ;}
	.st42{clip-path:url(#SVGID_86_);}
	.st43{clip-path:url(#SVGID_88_);}
	.st44{clip-path:url(#SVGID_90_);fill:#00A9AC;}
	.st45{clip-path:url(#SVGID_92_);}
	.st46{clip-path:url(#SVGID_94_);enable-background:new    ;}
	.st47{clip-path:url(#SVGID_96_);}
	.st48{clip-path:url(#SVGID_98_);}
	.st49{clip-path:url(#SVGID_100_);fill:#00A9AC;}
	.st50{clip-path:url(#SVGID_102_);}
	.st51{clip-path:url(#SVGID_104_);enable-background:new    ;}
	.st52{clip-path:url(#SVGID_106_);}
	.st53{clip-path:url(#SVGID_108_);}
	.st54{clip-path:url(#SVGID_110_);fill:#00A9AC;}
	.st55{clip-path:url(#SVGID_112_);}
	.st56{clip-path:url(#SVGID_114_);enable-background:new    ;}
	.st57{clip-path:url(#SVGID_116_);}
	.st58{clip-path:url(#SVGID_118_);}
	.st59{clip-path:url(#SVGID_120_);fill:#00A9AC;}
	.st60{clip-path:url(#SVGID_122_);}
	.st61{clip-path:url(#SVGID_124_);enable-background:new    ;}
	.st62{clip-path:url(#SVGID_126_);}
	.st63{clip-path:url(#SVGID_128_);}
	.st64{clip-path:url(#SVGID_130_);fill:#00A9AC;}
	.st65{clip-path:url(#SVGID_132_);}
	.st66{clip-path:url(#SVGID_134_);enable-background:new    ;}
	.st67{clip-path:url(#SVGID_136_);}
	.st68{clip-path:url(#SVGID_138_);}
	.st69{clip-path:url(#SVGID_140_);fill:#F59421;}
	.st70{clip-path:url(#SVGID_142_);}
	.st71{clip-path:url(#SVGID_144_);enable-background:new    ;}
	.st72{clip-path:url(#SVGID_146_);}
	.st73{clip-path:url(#SVGID_148_);}
	.st74{clip-path:url(#SVGID_150_);fill:#F59421;}
</style>
<g>
	<g>
		<defs>
			<path id="SVGID_1_" d="M177.6,5.8c0,27.6,0,55.3,0,82.9v1.1c-0.2-0.1-0.3-0.2-0.4-0.4c-3-6.2-5.9-12.4-8.9-18.6
				C158,49,147.7,27.2,137.3,5.4c-0.3-0.6-0.6-0.9-1.3-0.9c-10.5,0-20.9,0-31.4,0c-1.4,0-1.4,0-1.4,1.4v67.7v38.3
				c0,1.6,0,1.6,1.7,1.6c6.4,0,12.8,0,19.2,0c0.9,0,1.2-0.2,1.2-1.2c0-29.2,0-58.5,0-87.7v-1.1c0.1,0,0.1,0,0.2,0
				c0.1,0.2,0.2,0.4,0.3,0.6c3.1,6.7,6.3,13.5,9.4,20.2c10.6,22.8,21.2,45.6,31.8,68.4c0.3,0.6,0.6,0.8,1.3,0.8
				c10.1,0,20.1,0,30.2,0c0.8,0,1-0.2,1-1c0-35.7,0-71.4,0-107c0-0.8-0.2-1-1-1c-6.5,0-13,0-19.5,0c0,0,0,0,0,0
				C177.8,4.5,177.6,4.8,177.6,5.8z"/>
		</defs>
		<clipPath id="SVGID_2_">
			<use xlink:href="#SVGID_1_"  style="overflow:visible;"/>
		</clipPath>
		<g class="st0">
			<defs>
				<rect id="SVGID_3_" x="2.2" y="-9.5" width="518" height="218.8"/>
			</defs>
			<clipPath id="SVGID_4_">
				<use xlink:href="#SVGID_3_"  style="overflow:visible;"/>
			</clipPath>
			<g class="st1">
				<g>
					<defs>
						<rect id="SVGID_5_" x="92" y="-5.6" width="117.2" height="128.9"/>
					</defs>
					<clipPath id="SVGID_6_">
						<use xlink:href="#SVGID_5_"  style="overflow:visible;"/>
					</clipPath>
					<g class="st2">
						<defs>
							<rect id="SVGID_7_" x="95.4" y="-3.2" width="111.6" height="124.6"/>
						</defs>
						<clipPath id="SVGID_8_">
							<use xlink:href="#SVGID_7_"  style="overflow:visible;"/>
						</clipPath>
						<g class="st3">
							<defs>
								<rect id="SVGID_9_" x="99.8" y="2.2" width="101.6" height="113.3"/>
							</defs>
							<clipPath id="SVGID_10_">
								<use xlink:href="#SVGID_9_"  style="overflow:visible;"/>
							</clipPath>
							<rect x="75.9" y="-22.8" class="st4" width="150.7" height="163.7"/>
						</g>
					</g>
				</g>
			</g>
		</g>
	</g>
	<g>
		<defs>
			<path id="SVGID_11_" d="M25.6,94.9c0-4.7,0-9.3,0-14c0-4.8,0-9.5,0-14.3c0-0.7,0.2-0.9,0.9-0.9c2.4,0,4.9,0,7.3,0
				c4.4,0,8.9,0,13.3,0.2c3.2,0.2,6.3,0.7,9.3,1.9c4.3,1.8,6.8,4.9,7.7,9.4c0.6,2.9,0.5,5.8-0.1,8.6c-1.2,5.1-4.7,7.9-9.6,9.1
				c-3.5,0.9-7.1,0.9-10.7,0.9c-2.8,0-5.6,0-8.4,0c-2.9,0-5.8,0-8.7,0c0,0,0,0,0,0C25.7,96,25.6,95.7,25.6,94.9z M25.6,47.9
				c0-8.5,0-17.1,0-25.7c0-0.7,0.2-1,0.9-1c6.1,0.1,12.2,0,18.3,0.1c2.6,0,5.1,0.3,7.6,1c5,1.5,7.9,5.1,8.3,10.4
				c0.2,2.3,0.1,4.6-0.5,6.9c-1.3,4.8-4.8,7.4-9.5,8.5c-2.6,0.6-5.2,0.7-7.9,0.7h-6.6c-3.2,0-6.4,0-9.7,0c0,0,0,0-0.1,0
				C25.9,48.9,25.6,48.8,25.6,47.9z M3,5.5c0,35.7,0,71.3,0,107c0,0.9,0.3,1,1.1,1c14.6,0,29.2,0,43.8-0.1c5.8,0,11.5-0.6,17.2-1.9
				C77.6,108.7,88.5,98,88,82.6C87.7,72,81.9,62.4,70.2,58.3c-1.8-0.6-3.6-1-5.4-1.5c2.4-0.8,4.7-1.8,6.8-3.1
				c4.6-2.9,8.6-6.4,10.5-11.6c1.9-5.1,2-10.2,0.8-15.4c-2.2-9.5-7.7-16.2-17.2-19.5c-5.1-1.8-10.5-2.5-15.9-2.5
				c-15.3-0.1-30.6,0-45.9-0.1c0,0,0,0,0,0C3,4.5,3,4.9,3,5.5z"/>
		</defs>
		<clipPath id="SVGID_12_">
			<use xlink:href="#SVGID_11_"  style="overflow:visible;"/>
		</clipPath>
		<g class="st5">
			<defs>
				<rect id="SVGID_13_" x="2.2" y="-9.5" width="518" height="218.8"/>
			</defs>
			<clipPath id="SVGID_14_">
				<use xlink:href="#SVGID_13_"  style="overflow:visible;"/>
			</clipPath>
			<g class="st6">
				<g>
					<defs>
						<rect id="SVGID_15_" x="-5.6" y="-5.6" width="101.6" height="128.9"/>
					</defs>
					<clipPath id="SVGID_16_">
						<use xlink:href="#SVGID_15_"  style="overflow:visible;"/>
					</clipPath>
					<g class="st7">
						<defs>
							<rect id="SVGID_17_" x="-4.9" y="-3.2" width="100.8" height="124.6"/>
						</defs>
						<clipPath id="SVGID_18_">
							<use xlink:href="#SVGID_17_"  style="overflow:visible;"/>
						</clipPath>
						<g class="st8">
							<defs>
								<rect id="SVGID_19_" x="2.2" y="2.2" width="89.9" height="113.3"/>
							</defs>
							<clipPath id="SVGID_20_">
								<use xlink:href="#SVGID_19_"  style="overflow:visible;"/>
							</clipPath>
							<rect x="-24.4" y="-22.8" class="st9" width="139.8" height="163.7"/>
						</g>
					</g>
				</g>
			</g>
		</g>
	</g>
	<g>
		<defs>
			<path id="SVGID_21_" d="M463,64.5c0.5-4.5,1.8-8.7,4.9-12.2c3.1-3.5,7-5.2,11.6-5.8c3.1-0.4,6.2-0.2,9.1,0.8
				c5.6,1.8,8.4,5.9,9.8,11.3c0.5,2,0.7,4,0.9,6c0.1,0.9-0.2,1.1-1.1,1.1c-5.7,0-11.5,0-17.2,0v0c-5.6,0-11.3,0-16.9,0c0,0,0,0,0,0
				C463.2,65.7,462.9,65.4,463,64.5z M473.6,33.8c-10.3,1.8-18,7.4-23.2,16.5c-2.9,5-4.2,10.6-4.8,16.3c-0.9,8.6-0.8,17.1,1.6,25.4
				c2.2,7.6,6.2,14,12.9,18.4c4.6,3.1,9.8,4.7,15.3,5.4c7.7,0.9,15.2,0.5,22.5-2.3c6.8-2.7,12.1-7.1,15.5-13.6c2-3.8,2.6-7.9,3-12
				c0.1-0.8-0.4-0.7-0.9-0.7c-4.6,0-9.2,0-13.8,0c-2.6,0-2.6,0-3,2.5c-0.8,4.9-3,8.9-7.6,11.3c-3.6,1.9-7.5,2.2-11.5,1.7
				c-6.9-0.8-11.8-4.2-14.7-10.6c-1.8-4-2.4-8.3-2.6-12.6c0-0.9,0.6-0.8,1.1-0.8c8.7,0,17.5,0,26.2,0c8.8,0,17.5,0,26.3,0
				c0.9,0,1.1-0.3,1.1-1.1c0-2.3,0.1-4.5,0-6.8c-0.1-5.6-0.7-11.1-2.4-16.5c-3.4-10.5-10.3-17.3-21-20c-3.6-0.9-7.3-1.3-11-1.3
				C479.6,33,476.6,33.3,473.6,33.8z"/>
		</defs>
		<clipPath id="SVGID_22_">
			<use xlink:href="#SVGID_21_"  style="overflow:visible;"/>
		</clipPath>
		<g class="st10">
			<defs>
				<rect id="SVGID_23_" x="2.2" y="-9.5" width="518" height="218.8"/>
			</defs>
			<clipPath id="SVGID_24_">
				<use xlink:href="#SVGID_23_"  style="overflow:visible;"/>
			</clipPath>
			<g class="st11">
				<g>
					<defs>
						<rect id="SVGID_25_" x="435.8" y="21.7" width="89.9" height="105.5"/>
					</defs>
					<clipPath id="SVGID_26_">
						<use xlink:href="#SVGID_25_"  style="overflow:visible;"/>
					</clipPath>
					<g class="st12">
						<defs>
							<rect id="SVGID_27_" x="437.3" y="25.2" width="87.6" height="99"/>
						</defs>
						<clipPath id="SVGID_28_">
							<use xlink:href="#SVGID_27_"  style="overflow:visible;"/>
						</clipPath>
						<g class="st13">
							<defs>
								<rect id="SVGID_29_" x="443.6" y="29.5" width="74.2" height="89.9"/>
							</defs>
							<clipPath id="SVGID_30_">
								<use xlink:href="#SVGID_29_"  style="overflow:visible;"/>
							</clipPath>
							<rect x="417.7" y="5.6" class="st14" width="126.6" height="138.1"/>
						</g>
					</g>
				</g>
			</g>
		</g>
	</g>
	<g>
		<defs>
			<path id="SVGID_31_" d="M286.3,0.2c-5.1,0.1-10.2,0.1-15.4,0c-1,0-1.3,0.2-1.3,1.2c0,18.4,0,36.9,0,55.3c0,18.5,0,37.1,0,55.6
				c0,0.9,0.2,1.2,1.1,1.1c5,0,10.1,0,15.1,0h50c2,0,2,0,2-2.1c0-4.4,0-8.8,0-13.1c0-1.9,0.1-1.5-1.5-1.5c-15.9,0-31.7,0-47.6,0
				c-1.1,0-1.3-0.3-1.3-1.4c0-22.9,0-45.8,0-68.7c0-8.4,0-16.8,0-25.2C287.6,0.5,287.4,0.2,286.3,0.2C286.3,0.2,286.3,0.2,286.3,0.2
				z"/>
		</defs>
		<clipPath id="SVGID_32_">
			<use xlink:href="#SVGID_31_"  style="overflow:visible;"/>
		</clipPath>
		<g class="st15">
			<defs>
				<rect id="SVGID_33_" x="2.2" y="-9.5" width="518" height="218.8"/>
			</defs>
			<clipPath id="SVGID_34_">
				<use xlink:href="#SVGID_33_"  style="overflow:visible;"/>
			</clipPath>
			<g class="st16">
				<g>
					<defs>
						<rect id="SVGID_35_" x="260" y="-9.5" width="85.9" height="132.8"/>
					</defs>
					<clipPath id="SVGID_36_">
						<use xlink:href="#SVGID_35_"  style="overflow:visible;"/>
					</clipPath>
					<g class="st17">
						<defs>
							<rect id="SVGID_37_" x="261.9" y="-7.6" width="83.8" height="129.1"/>
						</defs>
						<clipPath id="SVGID_38_">
							<use xlink:href="#SVGID_37_"  style="overflow:visible;"/>
						</clipPath>
						<g class="st18">
							<defs>
								<rect id="SVGID_39_" x="267.8" y="-1.7" width="70.3" height="117.2"/>
							</defs>
							<clipPath id="SVGID_40_">
								<use xlink:href="#SVGID_39_"  style="overflow:visible;"/>
							</clipPath>
							<rect x="242.4" y="-27.2" class="st19" width="122.9" height="168.1"/>
						</g>
					</g>
				</g>
			</g>
		</g>
	</g>
	<g>
		<defs>
			<path id="SVGID_41_" d="M417.3,2.4c-5.1,1.7-9,4.8-11.3,9.7c-1.5,3.1-1.9,6.4-2,9.7c-0.2,4.4-0.2,8.8-0.2,13.1
				c0,0.9-0.2,1.3-1.2,1.3c-2.5,0-5.1,0-7.6,0c-1.8,0-3.6,0-5.3,0c-0.8,0-1,0.2-1,1c0,3.8,0,7.7,0,11.5v0.1c0,0.7,0.3,0.9,1,0.9
				c4.2,0,8.5,0,12.7,0c1.4,0,1.4,0,1.4,1.4v62.7c0,1.5,0,1.5,1.4,1.5c1.4,0,2.9,0,4.3,0c3.4,0,6.9,0,10.3,0h0.1
				c0.9,0,1.1-0.3,1.1-1.2c0-10.5,0-21.1,0-31.6c0-10.5,0-21.1,0-31.6c0-1,0.3-1.2,1.3-1.2c2.8,0,5.5,0,8.3,0c2.4,0,4.8,0,7.3,0
				c0.9,0,1.2-0.2,1.2-1.1c-0.1-3.7-0.1-7.4,0-11.1c0-1-0.3-1.2-1.3-1.2c-5.2,0-10.5,0-15.7,0c-0.5,0-1,0.1-0.9-0.6
				c0.1-4.5-0.2-9.1,0.2-13.6c0.2-2.7,1.7-4.5,4.3-5.2c1-0.3,2-0.5,3.1-0.6c3.8-0.2,7.7,0,11.5,0.2c0.6,0,1,0,1-0.8v0
				c0-4.2,0-8.4,0-12.6c0-0.7-0.3-0.9-0.9-1c-3-0.5-6-0.9-9-1c-1.1-0.1-2.3-0.1-3.4-0.1C424.2,0.9,420.7,1.3,417.3,2.4z"/>
		</defs>
		<clipPath id="SVGID_42_">
			<use xlink:href="#SVGID_41_"  style="overflow:visible;"/>
		</clipPath>
		<g class="st20">
			<defs>
				<rect id="SVGID_43_" x="2.2" y="-9.5" width="518" height="218.8"/>
			</defs>
			<clipPath id="SVGID_44_">
				<use xlink:href="#SVGID_43_"  style="overflow:visible;"/>
			</clipPath>
			<g class="st21">
				<g>
					<defs>
						<rect id="SVGID_45_" x="377.2" y="-9.5" width="74.2" height="132.8"/>
					</defs>
					<clipPath id="SVGID_46_">
						<use xlink:href="#SVGID_45_"  style="overflow:visible;"/>
					</clipPath>
					<g class="st22">
						<defs>
							<rect id="SVGID_47_" x="380.7" y="-6.9" width="68.4" height="129.9"/>
						</defs>
						<clipPath id="SVGID_48_">
							<use xlink:href="#SVGID_47_"  style="overflow:visible;"/>
						</clipPath>
						<g class="st23">
							<defs>
								<rect id="SVGID_49_" x="385" y="-1.7" width="58.6" height="117.2"/>
							</defs>
							<clipPath id="SVGID_50_">
								<use xlink:href="#SVGID_49_"  style="overflow:visible;"/>
							</clipPath>
							<rect x="361.1" y="-26.4" class="st24" width="107.5" height="168.9"/>
						</g>
					</g>
				</g>
			</g>
		</g>
	</g>
	<g>
		<defs>
			<path id="SVGID_51_" d="M240.7,2c-6.9,0-13.7,0-20.6,0c-0.8,0-1,0.2-1,1c0,35.5,0,70.9,0,106.4c0,0.9,0.2,1.1,1,1.1
				c6.9,0,13.7,0,20.6,0c0.9,0,1.1-0.2,1.1-1.1c0-17.7,0-35.4,0-53c0-17.8,0-35.5,0-53.3C241.8,2.2,241.6,2,240.7,2
				C240.7,2,240.7,2,240.7,2z"/>
		</defs>
		<clipPath id="SVGID_52_">
			<use xlink:href="#SVGID_51_"  style="overflow:visible;"/>
		</clipPath>
		<g class="st25">
			<defs>
				<rect id="SVGID_53_" x="2.2" y="-9.5" width="518" height="218.8"/>
			</defs>
			<clipPath id="SVGID_54_">
				<use xlink:href="#SVGID_53_"  style="overflow:visible;"/>
			</clipPath>
			<g class="st26">
				<g>
					<defs>
						<rect id="SVGID_55_" x="209.2" y="-9.5" width="43" height="128.9"/>
					</defs>
					<clipPath id="SVGID_56_">
						<use xlink:href="#SVGID_55_"  style="overflow:visible;"/>
					</clipPath>
					<g class="st27">
						<defs>
							<rect id="SVGID_57_" x="211.5" y="-5.8" width="37.8" height="124"/>
						</defs>
						<clipPath id="SVGID_58_">
							<use xlink:href="#SVGID_57_"  style="overflow:visible;"/>
						</clipPath>
						<g class="st28">
							<defs>
								<rect id="SVGID_59_" x="217" y="-1.7" width="27.3" height="113.3"/>
							</defs>
							<clipPath id="SVGID_60_">
								<use xlink:href="#SVGID_59_"  style="overflow:visible;"/>
							</clipPath>
							<rect x="192" y="-25.3" class="st29" width="76.9" height="163.1"/>
						</g>
					</g>
				</g>
			</g>
		</g>
	</g>
	<g>
		<defs>
			<path id="SVGID_61_" d="M93.6,142.9c-3.1,0.2-4.3,1.6-4.9,4.7c-0.2,1-0.3,2.1-0.3,3.1c0,7.5,0,15.1,0,22.6h0v23.8
				c0,2.4,0.2,2.5,2.6,2.5c2.2,0,4.5,0,6.7,0c2.2,0,2.6-0.3,2.6-2.6c0-4.8,0-9.5,0-14.3c0-8.9,0-17.8,0-26.7c0-0.5-0.3-1.3,0.6-1.4
				c0.8-0.1,1.5,0,1.8,0.9c0.1,0.2,0.2,0.5,0.3,0.7c3.7,8.2,7.3,16.5,11,24.7c2,4.4,3.9,8.8,6,13.1c1.4,3,3.6,5.3,7.1,5.5
				c2.7,0.2,5.4,0.1,8.1,0c2.4-0.1,4.3-1.4,5.7-3.4c1.1-1.5,2-3.2,2.8-5c5.3-11.8,10.6-23.6,15.8-35.4c0.4-0.9,1-1.4,1.9-1.2
				c1,0.2,0.8,1,0.8,1.7c0,5.7,0,11.3,0,17c0,8,0,16.1,0,24.1c0,1.9,0.3,2.2,2.2,2.2c0.9,0,1.8,0,2.7,0c1.7,0,3.4,0,5,0
				c1.3,0,1.8-0.6,1.9-1.8c0-0.5,0-1.1,0-1.7c0-14.7,0-29.4,0-44.1c0-1.3-0.1-2.6-0.2-3.9c-0.4-3.7-2.3-5.4-6.1-5.4
				c-3.6,0-7.2,0-10.8,0c-2.8,0-4.9,1.2-6.2,3.7c-0.4,0.8-0.8,1.7-1.2,2.6c-5.5,12.7-11,25.5-16.4,38.2c-0.4,0.9-0.8,1.4-1.8,1.5
				c-1.1,0-1.6-0.5-2-1.4c-4.2-9.9-8.4-19.7-12.7-29.5c-1.5-3.5-3-7-4.5-10.5c-1.1-2.4-2.7-4.3-5.6-4.4c-2.5-0.1-4.9-0.1-7.4-0.1
				C97.5,142.8,95.5,142.8,93.6,142.9z"/>
		</defs>
		<clipPath id="SVGID_62_">
			<use xlink:href="#SVGID_61_"  style="overflow:visible;"/>
		</clipPath>
		<g class="st30">
			<defs>
				<rect id="SVGID_63_" x="2.2" y="-9.5" width="518" height="218.8"/>
			</defs>
			<clipPath id="SVGID_64_">
				<use xlink:href="#SVGID_63_"  style="overflow:visible;"/>
			</clipPath>
			<g class="st31">
				<g>
					<defs>
						<rect id="SVGID_65_" x="80.3" y="135" width="101.6" height="70.3"/>
					</defs>
					<clipPath id="SVGID_66_">
						<use xlink:href="#SVGID_65_"  style="overflow:visible;"/>
					</clipPath>
					<g class="st32">
						<defs>
							<rect id="SVGID_67_" x="83.3" y="137.6" width="96.1" height="67.3"/>
						</defs>
						<clipPath id="SVGID_68_">
							<use xlink:href="#SVGID_67_"  style="overflow:visible;"/>
						</clipPath>
						<g class="st33">
							<defs>
								<rect id="SVGID_69_" x="88.1" y="138.9" width="89.9" height="62.5"/>
							</defs>
							<clipPath id="SVGID_70_">
								<use xlink:href="#SVGID_69_"  style="overflow:visible;"/>
							</clipPath>
							<rect x="63.8" y="118.1" class="st34" width="135.1" height="106.4"/>
						</g>
					</g>
				</g>
			</g>
		</g>
	</g>
	<g>
		<defs>
			<path id="SVGID_71_" d="M287.9,164.9c3.1-0.1,6.3-0.1,9.6,0.2c3.7,0.4,5.5,2,5.8,5.7c0.4,4.4,0.4,8.8,0,13.2
				c-0.4,3.8-2.3,5.5-6.1,5.8c-2.5,0.2-5.1,0.2-7.6,0.1c-0.9,0-1.8,0-2.7,0c-4.8,0-9.5,0-14.2-0.1c-4.5-0.2-6.5-2.1-6.7-6.7
				c-0.2-5.8,0-11.6-0.1-17.4c0-1.1,0.7-0.9,1.3-0.9c4.8,0,9.5,0,15.3,0c0.8,0,1.5,0,2.3,0C285.7,165,286.8,165,287.9,164.9z
				 M256.7,139c-2.1,0-2.4,0.4-2.4,2.6v21.6h0.1c0,7.3-0.1,14.6,0,21.9c0,3.3,0.6,6.6,2.7,9.4c2.6,3.5,6.4,4.6,10.4,5
				c5.2,0.5,10.4,0.4,15.5,0.3c2.5,0,5.1-0.1,7.6,0c3.8,0,7.5,0.1,11.3-0.3c8.4-0.8,12.7-5.4,13-13.8c0.2-5.6,0.2-11.2,0-16.8
				c-0.3-7-3.7-11.2-10.3-12.8c-1.8-0.4-3.6-0.7-5.4-0.7c-8.6,0-17.1,0-25.7-0.1c-0.7,0-1.4,0-2.1,0c-1.8,0-3.5,0.1-5.3-0.1
				c-0.4-2.5-0.1-5-0.2-7.4c-0.1-2.2,0-4.4,0-6.6c0-1.7-0.4-2.1-2.1-2.1c-1.2,0-2.5,0-3.7,0C258.9,139,257.8,139,256.7,139z"/>
		</defs>
		<clipPath id="SVGID_72_">
			<use xlink:href="#SVGID_71_"  style="overflow:visible;"/>
		</clipPath>
		<g class="st35">
			<defs>
				<rect id="SVGID_73_" x="2.2" y="-9.5" width="518" height="218.8"/>
			</defs>
			<clipPath id="SVGID_74_">
				<use xlink:href="#SVGID_73_"  style="overflow:visible;"/>
			</clipPath>
			<g class="st36">
				<g>
					<defs>
						<rect id="SVGID_75_" x="248.3" y="131.1" width="74.2" height="74.2"/>
					</defs>
					<clipPath id="SVGID_76_">
						<use xlink:href="#SVGID_75_"  style="overflow:visible;"/>
					</clipPath>
					<g class="st37">
						<defs>
							<rect id="SVGID_77_" x="249.1" y="133.8" width="71.1" height="71.1"/>
						</defs>
						<clipPath id="SVGID_78_">
							<use xlink:href="#SVGID_77_"  style="overflow:visible;"/>
						</clipPath>
						<g class="st38">
							<defs>
								<rect id="SVGID_79_" x="252.2" y="138.9" width="66.4" height="62.5"/>
							</defs>
							<clipPath id="SVGID_80_">
								<use xlink:href="#SVGID_79_"  style="overflow:visible;"/>
							</clipPath>
							<rect x="229.6" y="114.3" class="st39" width="110.1" height="110.1"/>
						</g>
					</g>
				</g>
			</g>
		</g>
	</g>
	<g>
		<defs>
			<path id="SVGID_81_" d="M378.6,171.9c0-0.2,0-0.4,0-0.6c0-5.4,2-7.5,7.4-7.6c7.2-0.1,14.4,0,21.6-0.1c0.1,0,0.1,0,0.2,0
				c4.3,0.1,5.3,1.1,5.3,5.5c0,4.1,0.4,4.1-3.1,4.1c-0.3,0-0.6,0-1,0c-4.4,0-8.8,0-13.3,0c-5.2,0-10.5,0-15.7,0c0,0,0,0-0.1,0
				C378.9,173.3,378.4,173,378.6,171.9z M378.1,155.3c-6.1,1.1-9.8,4.5-10.6,10.7c-1,7.5-0.8,15,0,22.5c0.5,4.6,3,8,7.4,9.7
				c2.9,1.1,5.8,1.5,8.9,1.5c7.2,0,14.5,0,21.7,0c5.3,0,10.5,0,15.8,0c1.3,0,1.7-0.6,1.7-1.7c0-1.8,0-3.7,0-5.5
				c0-2.5-0.1-2.7-2.6-2.7c-10.8,0-21.5,0-32.3,0c-1.2,0-2.4,0-3.6-0.2c-3.9-0.4-5.5-2.1-5.9-6c-0.1-0.6,0-1.1-0.1-1.7
				c-0.2-1.2,0.4-1.4,1.5-1.4c6.7,0,13.4,0,20.1,0c2.8,0,5.6,0,8.5,0c1.2,0,2.3,0,3.5,0c2.8,0,5.6,0,8.4,0c2.3,0,3.8-1.2,3.8-3.3
				c0.1-4.8,0.5-9.7-0.3-14.4c-0.6-4-2.9-6.7-7-7.6c-1.8-0.4-3.7-0.6-5.5-0.6c-8.8,0-17.5,0-26.3,0c0,0-0.1,0-0.1,0
				C382.7,154.6,380.4,154.8,378.1,155.3z"/>
		</defs>
		<clipPath id="SVGID_82_">
			<use xlink:href="#SVGID_81_"  style="overflow:visible;"/>
		</clipPath>
		<g class="st40">
			<defs>
				<rect id="SVGID_83_" x="2.2" y="-9.5" width="518" height="218.8"/>
			</defs>
			<clipPath id="SVGID_84_">
				<use xlink:href="#SVGID_83_"  style="overflow:visible;"/>
			</clipPath>
			<g class="st41">
				<g>
					<defs>
						<rect id="SVGID_85_" x="361.6" y="146.7" width="70.3" height="58.6"/>
					</defs>
					<clipPath id="SVGID_86_">
						<use xlink:href="#SVGID_85_"  style="overflow:visible;"/>
					</clipPath>
					<g class="st42">
						<defs>
							<rect id="SVGID_87_" x="361.6" y="149.5" width="68.1" height="55.4"/>
						</defs>
						<clipPath id="SVGID_88_">
							<use xlink:href="#SVGID_87_"  style="overflow:visible;"/>
						</clipPath>
						<g class="st43">
							<defs>
								<rect id="SVGID_89_" x="365.5" y="154.5" width="62.5" height="46.9"/>
							</defs>
							<clipPath id="SVGID_90_">
								<use xlink:href="#SVGID_89_"  style="overflow:visible;"/>
							</clipPath>
							<rect x="342.1" y="129.9" class="st44" width="107.2" height="94.5"/>
						</g>
					</g>
				</g>
			</g>
		</g>
	</g>
	<g>
		<defs>
			<path id="SVGID_91_" d="M215.1,164.4c4.2,0,8.4-0.1,12.7,0c4.6,0.1,6.6,1.7,7.1,6c0.5,4.5,0.5,9.1,0,13.7
				c-0.5,4.1-2.5,5.8-6.8,5.9c-3.6,0.1-7.1,0.1-10.7,0.1c-1.1,0-2.2,0-3.3,0c-4,0-7.9,0.1-11.9-0.1c-4.6-0.1-6.6-2-7.1-6.4
				c-0.4-4.3-0.4-8.5,0-12.8c0.4-4.4,2.4-6.3,6.9-6.4C206.4,164.3,210.7,164.4,215.1,164.4L215.1,164.4z M196.4,155
				c-8.4,0.9-13,5.3-13.4,13c-0.3,6.2-0.3,12.5,0,18.7c0.4,6.7,3.9,10.7,10.6,12.2c2.5,0.6,5,0.8,7.6,0.8c3.8,0,7.5,0,11.3,0
				c5.2,0,10.4,0,15.6,0c2.5,0,4.9-0.2,7.3-0.7c6.7-1.2,10.3-4.4,11.1-11c1-7.6,1-15.2-0.1-22.8c-0.7-4.9-3.8-8.1-8.7-9.5
				c-2.4-0.7-4.8-1.1-7.2-1.2c-5.2-0.1-10.3,0-17.5,0c-1.6,0.1-3.4,0-5.4,0c-1.2,0-2.5,0-3.8,0C201.4,154.6,198.9,154.7,196.4,155z"
				/>
		</defs>
		<clipPath id="SVGID_92_">
			<use xlink:href="#SVGID_91_"  style="overflow:visible;"/>
		</clipPath>
		<g class="st45">
			<defs>
				<rect id="SVGID_93_" x="2.2" y="-9.5" width="518" height="218.8"/>
			</defs>
			<clipPath id="SVGID_94_">
				<use xlink:href="#SVGID_93_"  style="overflow:visible;"/>
			</clipPath>
			<g class="st46">
				<g>
					<defs>
						<rect id="SVGID_95_" x="174.1" y="146.7" width="82" height="58.6"/>
					</defs>
					<clipPath id="SVGID_96_">
						<use xlink:href="#SVGID_95_"  style="overflow:visible;"/>
					</clipPath>
					<g class="st47">
						<defs>
							<rect id="SVGID_97_" x="177.6" y="149.5" width="75.1" height="55.4"/>
						</defs>
						<clipPath id="SVGID_98_">
							<use xlink:href="#SVGID_97_"  style="overflow:visible;"/>
						</clipPath>
						<g class="st48">
							<defs>
								<rect id="SVGID_99_" x="181.9" y="154.5" width="66.4" height="46.9"/>
							</defs>
							<clipPath id="SVGID_100_">
								<use xlink:href="#SVGID_99_"  style="overflow:visible;"/>
							</clipPath>
							<rect x="158" y="129.9" class="st49" width="114.1" height="94.5"/>
						</g>
					</g>
				</g>
			</g>
		</g>
	</g>
	<g>
		<defs>
			<path id="SVGID_101_" d="M346.4,141.7c0,9.2,0,18.3,0,27.4c0,9.4,0,18.7,0,28.1c0,2.2,0.3,2.5,2.5,2.5c2.2,0,4.4,0,6.6,0
				c2.4,0,2.7-0.3,2.7-2.7v-55.2c0-0.3,0-0.7,0-1c0-1.2-0.6-1.8-1.9-1.8c-2.4,0-4.7,0-7.1,0C346.6,139,346.4,139.2,346.4,141.7z"/>
		</defs>
		<clipPath id="SVGID_102_">
			<use xlink:href="#SVGID_101_"  style="overflow:visible;"/>
		</clipPath>
		<g class="st50">
			<defs>
				<rect id="SVGID_103_" x="2.2" y="-9.5" width="518" height="218.8"/>
			</defs>
			<clipPath id="SVGID_104_">
				<use xlink:href="#SVGID_103_"  style="overflow:visible;"/>
			</clipPath>
			<g class="st51">
				<g>
					<defs>
						<rect id="SVGID_105_" x="338.1" y="131.1" width="27.3" height="74.2"/>
					</defs>
					<clipPath id="SVGID_106_">
						<use xlink:href="#SVGID_105_"  style="overflow:visible;"/>
					</clipPath>
					<g class="st52">
						<defs>
							<rect id="SVGID_107_" x="341" y="133.8" width="22.7" height="71.1"/>
						</defs>
						<clipPath id="SVGID_108_">
							<use xlink:href="#SVGID_107_"  style="overflow:visible;"/>
						</clipPath>
						<g class="st53">
							<defs>
								<rect id="SVGID_109_" x="345.9" y="138.9" width="15.6" height="62.5"/>
							</defs>
							<clipPath id="SVGID_110_">
								<use xlink:href="#SVGID_109_"  style="overflow:visible;"/>
							</clipPath>
							<rect x="321.5" y="114.3" class="st54" width="61.8" height="110.1"/>
						</g>
					</g>
				</g>
			</g>
		</g>
	</g>
	<g>
		<defs>
			<path id="SVGID_111_" d="M335.7,154.6c-1.5,0-3.1,0-4.6,0c-0.7,0-1.4,0-2.1,0c-2.1,0-2.4,0.3-2.4,2.5c0,6.7,0,13.3,0,20
				c0,6.8,0,13.6,0,20.4c0,1.8,0.4,2.2,2.1,2.3c2.2,0,4.3,0,6.5,0c2,0,2.3-0.4,2.3-2.6c0-13.3,0-26.5,0-39.8c0-0.4,0-0.7,0-1.1
				C337.3,155.2,336.9,154.6,335.7,154.6C335.7,154.6,335.7,154.6,335.7,154.6z"/>
		</defs>
		<clipPath id="SVGID_112_">
			<use xlink:href="#SVGID_111_"  style="overflow:visible;"/>
		</clipPath>
		<g class="st55">
			<defs>
				<rect id="SVGID_113_" x="2.2" y="-9.5" width="518" height="218.8"/>
			</defs>
			<clipPath id="SVGID_114_">
				<use xlink:href="#SVGID_113_"  style="overflow:visible;"/>
			</clipPath>
			<g class="st56">
				<g>
					<defs>
						<rect id="SVGID_115_" x="318.6" y="146.7" width="27.3" height="58.6"/>
					</defs>
					<clipPath id="SVGID_116_">
						<use xlink:href="#SVGID_115_"  style="overflow:visible;"/>
					</clipPath>
					<g class="st57">
						<defs>
							<rect id="SVGID_117_" x="321.6" y="149.5" width="20.8" height="55.4"/>
						</defs>
						<clipPath id="SVGID_118_">
							<use xlink:href="#SVGID_117_"  style="overflow:visible;"/>
						</clipPath>
						<g class="st58">
							<defs>
								<rect id="SVGID_119_" x="326.4" y="154.5" width="11.7" height="46.9"/>
							</defs>
							<clipPath id="SVGID_120_">
								<use xlink:href="#SVGID_119_"  style="overflow:visible;"/>
							</clipPath>
							<rect x="302.1" y="129.9" class="st59" width="59.8" height="94.5"/>
						</g>
					</g>
				</g>
			</g>
		</g>
	</g>
	<g>
		<defs>
			<path id="SVGID_121_" d="M326.5,140.9c0,2.7,0,5.3,0,8c0,1.4,0.7,2,1.9,2c2.4,0,4.9,0,7.3,0c1.1,0,1.7-0.6,1.7-1.8
				c0-2.8,0-5.5,0-8.3c0-1.2-0.6-1.8-1.7-1.8c-1.2,0-2.4,0-3.7,0v0c-1.2,0-2.4,0-3.7,0c0,0,0,0-0.1,0
				C327.2,139,326.5,139.6,326.5,140.9z"/>
		</defs>
		<clipPath id="SVGID_122_">
			<use xlink:href="#SVGID_121_"  style="overflow:visible;"/>
		</clipPath>
		<g class="st60">
			<defs>
				<rect id="SVGID_123_" x="2.2" y="-9.5" width="518" height="218.8"/>
			</defs>
			<clipPath id="SVGID_124_">
				<use xlink:href="#SVGID_123_"  style="overflow:visible;"/>
			</clipPath>
			<g class="st61">
				<g>
					<defs>
						<rect id="SVGID_125_" x="318.6" y="131.1" width="27.3" height="27.3"/>
					</defs>
					<clipPath id="SVGID_126_">
						<use xlink:href="#SVGID_125_"  style="overflow:visible;"/>
					</clipPath>
					<g class="st62">
						<defs>
							<rect id="SVGID_127_" x="321.6" y="133.6" width="20.8" height="22.7"/>
						</defs>
						<clipPath id="SVGID_128_">
							<use xlink:href="#SVGID_127_"  style="overflow:visible;"/>
						</clipPath>
						<g class="st63">
							<defs>
								<rect id="SVGID_129_" x="326.4" y="138.9" width="11.7" height="15.6"/>
							</defs>
							<clipPath id="SVGID_130_">
								<use xlink:href="#SVGID_129_"  style="overflow:visible;"/>
							</clipPath>
							<rect x="302.1" y="114.1" class="st64" width="59.8" height="61.8"/>
						</g>
					</g>
				</g>
			</g>
		</g>
	</g>
	<g>
		<defs>
			<path id="SVGID_131_" d="M354.7,37.4c0,25.6,0,51.2,0,76.8c0,0.8,0.2,1.1,1,1.1c5,0,10,0,14.9,0c0.9,0,1.1-0.3,1.1-1.2
				c0-12.8,0-25.6,0-38.4h0c0-12.8,0-25.6,0-38.4c0-0.9-0.2-1.2-1.1-1.2c-4.9,0-9.8,0.1-14.7,0c0,0,0,0-0.1,0
				C354.9,36.1,354.7,36.4,354.7,37.4z"/>
		</defs>
		<clipPath id="SVGID_132_">
			<use xlink:href="#SVGID_131_"  style="overflow:visible;"/>
		</clipPath>
		<g class="st65">
			<defs>
				<rect id="SVGID_133_" x="2.2" y="-9.5" width="518" height="218.8"/>
			</defs>
			<clipPath id="SVGID_134_">
				<use xlink:href="#SVGID_133_"  style="overflow:visible;"/>
			</clipPath>
			<g class="st66">
				<g>
					<defs>
						<rect id="SVGID_135_" x="345.9" y="25.6" width="35.2" height="97.7"/>
					</defs>
					<clipPath id="SVGID_136_">
						<use xlink:href="#SVGID_135_"  style="overflow:visible;"/>
					</clipPath>
					<g class="st67">
						<defs>
							<rect id="SVGID_137_" x="346.9" y="28.4" width="32.6" height="94.7"/>
						</defs>
						<clipPath id="SVGID_138_">
							<use xlink:href="#SVGID_137_"  style="overflow:visible;"/>
						</clipPath>
						<g class="st68">
							<defs>
								<rect id="SVGID_139_" x="353.8" y="33.4" width="19.5" height="82"/>
							</defs>
							<clipPath id="SVGID_140_">
								<use xlink:href="#SVGID_139_"  style="overflow:visible;"/>
							</clipPath>
							<rect x="327.4" y="8.8" class="st69" width="71.7" height="133.8"/>
						</g>
					</g>
				</g>
			</g>
		</g>
	</g>
	<g>
		<defs>
			<path id="SVGID_141_" d="M373.3,3.5c-2.2,0-4.4,0-6.7,0c-1,0-1.9,0-2.9,0c-3.2,0-6.5,0-9.7,0c-0.7,0-1,0.2-1,0.9
				c0,5.5,0,10.9,0,16.4c0,0.7,0.3,0.9,1,0.9c6.4,0,12.9,0,19.3,0c0.7,0,0.9-0.2,0.9-0.9c0-5.5,0-10.9,0-16.4
				C374.3,3.7,374.1,3.5,373.3,3.5C373.3,3.5,373.3,3.5,373.3,3.5z"/>
		</defs>
		<clipPath id="SVGID_142_">
			<use xlink:href="#SVGID_141_"  style="overflow:visible;"/>
		</clipPath>
		<g class="st70">
			<defs>
				<rect id="SVGID_143_" x="2.2" y="-9.5" width="518" height="218.8"/>
			</defs>
			<clipPath id="SVGID_144_">
				<use xlink:href="#SVGID_143_"  style="overflow:visible;"/>
			</clipPath>
			<g class="st71">
				<g>
					<defs>
						<rect id="SVGID_145_" x="342" y="-5.6" width="43" height="35.2"/>
					</defs>
					<clipPath id="SVGID_146_">
						<use xlink:href="#SVGID_145_"  style="overflow:visible;"/>
					</clipPath>
					<g class="st72">
						<defs>
							<rect id="SVGID_147_" x="344.9" y="-4.1" width="37.6" height="33.3"/>
						</defs>
						<clipPath id="SVGID_148_">
							<use xlink:href="#SVGID_147_"  style="overflow:visible;"/>
						</clipPath>
						<g class="st73">
							<defs>
								<rect id="SVGID_149_" x="349.9" y="2.2" width="27.3" height="19.5"/>
							</defs>
							<clipPath id="SVGID_150_">
								<use xlink:href="#SVGID_149_"  style="overflow:visible;"/>
							</clipPath>
							<rect x="325.4" y="-23.6" class="st74" width="76.6" height="72.4"/>
						</g>
					</g>
				</g>
			</g>
		</g>
	</g>
</g>
</svg>
